%YAML 1.1
%TAG !u! tag:unity3d.com,2011:
--- !u!74 &7400000
AnimationClip:
  m_ObjectHideFlags: 0
  m_CorrespondingSourceObject: {fileID: 0}
  m_PrefabInstance: {fileID: 0}
  m_PrefabAsset: {fileID: 0}
  m_Name: Lata-Idle
  serializedVersion: 6
  m_Legacy: 0
  m_Compressed: 0
  m_UseHighQualityCurve: 1
  m_RotationCurves: []
  m_CompressedRotationCurves: []
  m_EulerCurves: []
  m_PositionCurves: []
  m_ScaleCurves: []
  m_FloatCurves: []
  m_PPtrCurves:
  - curve:
    - time: 0
      value: {fileID: 21300000, guid: 437be7832f7a8214297f021f631531c0, type: 3}
    - time: 0.16666667
      value: {fileID: 21300000, guid: d5925667d3e4bc7479eadf3ac5fdf8c7, type: 3}
    - time: 0.31666666
      value: {fileID: 21300000, guid: add88a04f6120b545b2d0e55813dc999, type: 3}
    - time: 0.48333332
      value: {fileID: 21300000, guid: d1b0aeb21e1b2294e956acbe68370d44, type: 3}
    - time: 0.65
      value: {fileID: 21300000, guid: 062c407b0435f9e42ab8ba353709865a, type: 3}
    - time: 0.81666666
      value: {fileID: 21300000, guid: 2cc70f7e5ec75cf458a3079d63af3c4f, type: 3}
    - time: 0.96666664
      value: {fileID: 21300000, guid: 3f670603a6f2f684a8f89bab66b0f2a9, type: 3}
    - time: 1.1333333
      value: {fileID: 21300000, guid: 4d12116a3505be44397ccaf56260c879, type: 3}
    - time: 1.3
      value: {fileID: 21300000, guid: 58606cd44e2ed2b40b972f89a2418027, type: 3}
    - time: 1.4666667
      value: {fileID: 21300000, guid: 3169571844a903244aab040dcbe94d75, type: 3}
    - time: 1.6166667
      value: {fileID: 21300000, guid: c29eb6e5121021645ae5481716f91127, type: 3}
    - time: 1.7833333
      value: {fileID: 21300000, guid: 81c3fc6217732294b8f3445ebf65d8fa, type: 3}
    - time: 1.95
      value: {fileID: 21300000, guid: e6d64bd45b4405b4dab051a187527385, type: 3}
    - time: 2.1166666
      value: {fileID: 21300000, guid: e8d1fb313d470604c82d3ae89871b7e2, type: 3}
    - time: 2.2666667
      value: {fileID: 21300000, guid: 437c25f053ee7b047bd51e2dc984328d, type: 3}
    - time: 2.4333334
      value: {fileID: 21300000, guid: 4a75575a5fea537429e42c566e66f3c1, type: 3}
    - time: 2.6333334
      value: {fileID: 21300000, guid: 437be7832f7a8214297f021f631531c0, type: 3}
    - time: 4.65
      value: {fileID: 21300000, guid: 437be7832f7a8214297f021f631531c0, type: 3}
    attribute: m_Sprite
    path: 
    classID: 212
    script: {fileID: 0}
  m_SampleRate: 60
  m_WrapMode: 0
  m_Bounds:
    m_Center: {x: 0, y: 0, z: 0}
    m_Extent: {x: 0, y: 0, z: 0}
  m_ClipBindingConstant:
    genericBindings:
    - serializedVersion: 2
      path: 0
      attribute: 0
      script: {fileID: 0}
      typeID: 212
      customType: 23
      isPPtrCurve: 1
    pptrCurveMapping:
    - {fileID: 21300000, guid: 437be7832f7a8214297f021f631531c0, type: 3}
    - {fileID: 21300000, guid: d5925667d3e4bc7479eadf3ac5fdf8c7, type: 3}
    - {fileID: 21300000, guid: add88a04f6120b545b2d0e55813dc999, type: 3}
    - {fileID: 21300000, guid: d1b0aeb21e1b2294e956acbe68370d44, type: 3}
    - {fileID: 21300000, guid: 062c407b0435f9e42ab8ba353709865a, type: 3}
    - {fileID: 21300000, guid: 2cc70f7e5ec75cf458a3079d63af3c4f, type: 3}
    - {fileID: 21300000, guid: 3f670603a6f2f684a8f89bab66b0f2a9, type: 3}
    - {fileID: 21300000, guid: 4d12116a3505be44397ccaf56260c879, type: 3}
    - {fileID: 21300000, guid: 58606cd44e2ed2b40b972f89a2418027, type: 3}
    - {fileID: 21300000, guid: 3169571844a903244aab040dcbe94d75, type: 3}
    - {fileID: 21300000, guid: c29eb6e5121021645ae5481716f91127, type: 3}
    - {fileID: 21300000, guid: 81c3fc6217732294b8f3445ebf65d8fa, type: 3}
    - {fileID: 21300000, guid: e6d64bd45b4405b4dab051a187527385, type: 3}
    - {fileID: 21300000, guid: e8d1fb313d470604c82d3ae89871b7e2, type: 3}
    - {fileID: 21300000, guid: 437c25f053ee7b047bd51e2dc984328d, type: 3}
    - {fileID: 21300000, guid: 4a75575a5fea537429e42c566e66f3c1, type: 3}
    - {fileID: 21300000, guid: 437be7832f7a8214297f021f631531c0, type: 3}
    - {fileID: 21300000, guid: 437be7832f7a8214297f021f631531c0, type: 3}
  m_AnimationClipSettings:
    serializedVersion: 2
    m_AdditiveReferencePoseClip: {fileID: 0}
    m_AdditiveReferencePoseTime: 0
    m_StartTime: 0
    m_StopTime: 4.666667
    m_OrientationOffsetY: 0
    m_Level: 0
    m_CycleOffset: 0
    m_HasAdditiveReferencePose: 0
    m_LoopTime: 1
    m_LoopBlend: 0
    m_LoopBlendOrientation: 0
    m_LoopBlendPositionY: 0
    m_LoopBlendPositionXZ: 0
    m_KeepOriginalOrientation: 0
    m_KeepOriginalPositionY: 1
    m_KeepOriginalPositionXZ: 0
    m_HeightFromFeet: 0
    m_Mirror: 0
  m_EditorCurves: []
  m_EulerEditorCurves: []
  m_HasGenericRootTransform: 0
  m_HasMotionFloatCurves: 0
  m_Events: []
